<svg xmlns="http://www.w3.org/2000/svg" xmlns:xlink="http://www.w3.org/1999/xlink" width="143" height="143" viewBox="0 0 143 143">
  <defs>
    <filter id="Oval" x="0" y="0" width="143" height="143" filterUnits="userSpaceOnUse">
      <feOffset dy="5" input="SourceAlpha"/>
      <feGaussianBlur stdDeviation="15" result="blur"/>
      <feFlood flood-opacity="0.122"/>
      <feComposite operator="in" in2="blur"/>
      <feComposite in="SourceGraphic"/>
    </filter>
  </defs>
  <g id="Location_Icon" data-name="Location Icon" transform="translate(45.333 40.333)">
    <g transform="matrix(1, 0, 0, 1, -45.33, -40.33)" filter="url(#Oval)">
      <circle id="Oval-2" data-name="Oval" cx="26.5" cy="26.5" r="26.5" transform="translate(45 40)" fill="#ffc907"/>
    </g>
    <path id="ic_my_location_24px" d="M13.947,9.239a4.708,4.708,0,1,0,4.708,4.708A4.707,4.707,0,0,0,13.947,9.239ZM24.47,12.77a10.586,10.586,0,0,0-9.345-9.345V1H12.77V3.425A10.586,10.586,0,0,0,3.425,12.77H1v2.354H3.425A10.586,10.586,0,0,0,12.77,24.47v2.425h2.354V24.47a10.586,10.586,0,0,0,9.345-9.345h2.425V12.77H24.47ZM13.947,22.186a8.239,8.239,0,1,1,8.239-8.239A8.233,8.233,0,0,1,13.947,22.186Z" transform="translate(11.72 11.714)"/>
  </g>
</svg>
