<svg xmlns="http://www.w3.org/2000/svg" xmlns:xlink="http://www.w3.org/1999/xlink" width="162.868" height="142.426" viewBox="0 0 162.868 142.426">
  <defs>
    <filter id="Oval" x="0" y="0" width="162.868" height="142.426" filterUnits="userSpaceOnUse">
      <feOffset dy="5" input="SourceAlpha"/>
      <feGaussianBlur stdDeviation="15" result="blur"/>
      <feFlood flood-opacity="0.122"/>
      <feComposite operator="in" in2="blur"/>
      <feComposite in="SourceGraphic"/>
    </filter>
  </defs>
  <g id="Hamburger_icon" data-name="Hamburger icon" transform="translate(25.836 40.395)">
    <g id="Group_9762" data-name="Group 9762">
      <g transform="matrix(1, 0, 0, 1, -25.84, -40.39)" filter="url(#Oval)">
        <path id="Oval-2" data-name="Oval" d="M46.4,51.177A25.589,25.589,0,1,0,46.4,0C32.265,0,0,10.2,0,24.332,0,32.981,12.085,41.1,24.979,46.2,32.7,49.263,40.914,51.177,46.4,51.177Z" transform="matrix(-1, 0.02, -0.02, -1, 117.87, 91.17)" fill="#ffc907"/>
      </g>
      <g id="Hamburger_icon-2" data-name="Hamburger icon" transform="translate(33.941 16.24)">
        <rect id="Rectangle" width="25" height="4" transform="translate(0.059 -0.24)" fill="#fff"/>
        <rect id="Rectangle-2" data-name="Rectangle" width="25" height="4" transform="translate(0.059 7.76)" fill="#fff"/>
        <rect id="Rectangle-3" data-name="Rectangle" width="25" height="4" transform="translate(0.059 15.76)" fill="#fff"/>
      </g>
    </g>
  </g>
</svg>





